('C:\\Users\\Issa\\PycharmProjects\\TextEngine\\venv\\build\\AdvancedTextEngine\\PKG-00.pkg',
 {'BINARY': 1,
  'DATA': 1,
  'EXECUTABLE': 1,
  'EXTENSION': 1,
  'PYMODULE': 1,
  'PYSOURCE': 1,
  'PYZ': 0},
 [('PYZ-00.pyz',
   'C:\\Users\\Issa\\PycharmProjects\\TextEngine\\venv\\build\\AdvancedTextEngine\\PYZ-00.pyz',
   'PYZ'),
  ('struct',
   'C:\\Users\\Issa\\AppData\\Local\\Programs\\Python\\Python37\\lib\\struct.pyo',
   'PYMODULE'),
  ('pyimod01_os_path',
   'c:\\users\\issa\\pycharmprojects\\textengine\\venv\\lib\\site-packages\\PyInstaller\\loader\\pyimod01_os_path.pyc',
   'PYMODULE'),
  ('pyimod02_archive',
   'c:\\users\\issa\\pycharmprojects\\textengine\\venv\\lib\\site-packages\\PyInstaller\\loader\\pyimod02_archive.pyc',
   'PYMODULE'),
  ('pyimod03_importers',
   'c:\\users\\issa\\pycharmprojects\\textengine\\venv\\lib\\site-packages\\PyInstaller\\loader\\pyimod03_importers.pyc',
   'PYMODULE'),
  ('pyiboot01_bootstrap',
   'c:\\users\\issa\\pycharmprojects\\textengine\\venv\\lib\\site-packages\\PyInstaller\\loader\\pyiboot01_bootstrap.py',
   'PYSOURCE'),
  ('pyi_rth__tkinter',
   'c:\\users\\issa\\pycharmprojects\\textengine\\venv\\lib\\site-packages\\PyInstaller\\loader\\rthooks\\pyi_rth__tkinter.py',
   'PYSOURCE'),
  ('pyi_rth_pkgres',
   'c:\\users\\issa\\pycharmprojects\\textengine\\venv\\lib\\site-packages\\PyInstaller\\loader\\rthooks\\pyi_rth_pkgres.py',
   'PYSOURCE'),
  ('pyi_rth_multiprocessing',
   'c:\\users\\issa\\pycharmprojects\\textengine\\venv\\lib\\site-packages\\PyInstaller\\loader\\rthooks\\pyi_rth_multiprocessing.py',
   'PYSOURCE'),
  ('AdvancedTextEngine',
   'C:\\Users\\Issa\\PycharmProjects\\TextEngine\\venv\\AdvancedTextEngine.py',
   'PYSOURCE'),
  ('AdvancedTextEngine.exe.manifest',
   'C:\\Users\\Issa\\PycharmProjects\\TextEngine\\venv\\build\\AdvancedTextEngine\\AdvancedTextEngine.exe.manifest',
   'BINARY')],
 True,
 False,
 False,
 [])
