[Setup Transition: 9B - 0e000000][Set text speed: 40 - 0003][Enable A to Increase Speed: 4C - 0001][Play Small Blip Each Char: 76 - ][Bottom Shaded BG Box: 7F - 000c0134001e00640000005a][Define Textured BG Box : 80 - 00280048006e008E08014628][Change Origin: 47 - 00140054][Set Mario Action: A6 - 0000130a]Do you feel that partner?[Pause for Inputted Time: 74 - 0038] That scent in the air,[Pause for Inputted Time: 74 - 0014] the
beat of the suns rays on our brow,[Pause for Inputted Time: 74 - 0014] the whisper of the
winds.[Pause for Inputted Time: 74 - 0038] The time of conquest is now,[Pause for Inputted Time: 74 - 0014] we will make the
mark of our lives on this soil,[Pause for Inputted Time: 74 - 0014] a battle of romance.[Pause for Inputted Time: 74 - 0038] I am
a hunter,[Pause for Inputted Time: 74 - 0014] a soldier,[Pause for Inputted Time: 74 - 0014] a cowboy.[Pause for Inputted Time: 74 - 0038] I am a force of nature.[Goto Next Box on A press: 71 - ][
][Set text speed: 40 - 0003][Enable A to Increase Speed: 4C - 0001][Bottom Shaded BG Box: 7F - 000c0134001e00640000005a][Define Textured BG Box : 80 - 00280048006e008E08014628]I see some nice looking girls over there.[Pause for Inputted Time: 74 - 0038] I'm going to
organize my magic decks in case they want to play a
match.[Pause for Inputted Time: 74 - 0038] You should prepare yourself mentally,[Pause for Inputted Time: 74 - 0014] meet up
with me when you're ready to strike out on the
fields of love.[Goto Next Box on A press: 71 - ][Bottom Shaded BG Box: 7F - 000c0134001e00640000005a][Define Textured BG Box : 80 - 00280048006e008E08000418][Set text speed: 40 - 0003][Enable A to Increase Speed: 4C - 0001][
][Add Behavior to Obj Arr: A7 - 0040672001][Path to object Point: 91 - 00010000fffb00000002]This guy is hopeless,[Pause for Inputted Time: 74 - 0014] but I should try to help him out.[Pause for Inputted Time: 74 - 0038]
I may not get my toilet paper otherwise.[Goto Next Box on A press: 71 - ][Set Mario Action: A6 - 0C400201][Auto End Display After VIs: 7C - 0000]

