[Set text speed: 40 - 0001][Play Small Blip Each Char: 76 - ][Bottom Shaded BG Box: 7F - 000c0134001e00640000005a][Define Textured BG Box : 80 - 00280048006e008E08015E28][Change Origin: 47 - 00140054][Add Behavior to Obj Arr: A7 - 004065f800][Add Behavior to Obj Arr: A7 - 1300014403][Add Behavior to Obj Arr: A7 - 13002F7002][Path to object Point: 91 - 0000fdaa011715390004][Path to object Point: 91 - 0002f61005aa167d000a]Ok Mario,[Pause for Inputted Time: 74 - 0014] hop on my back to across the river for this
next coin.[Pause for Inputted Time: 74 - 0038][Rotate Towards Object: A8 - 0003] You'll have to jump over my head to reach the
cliffside.[
][Pause for Inputted Time: 74 - 007e][
] Use the purple switch if necessary.[Auto End Display After VIs: 7C - 005a]
