[Set text speed: 40 - 0001][Play Small Blip Each Char: 76 - ][Bottom Shaded BG Box: 7F - 000c0134001e00640000005a][Define Textured BG Box : 80 - 00280048006e008E08015E28][Change Origin: 47 - 00140054][Add Behavior to Obj Arr: A7 - 004065f800][Add Behavior to Obj Arr: A7 - 1300407c02]Thats the last one,[Pause for Inputted Time: 74 - 0014] I'll take you to Creepy Steve's
house.[Return 1 if on top of obj in array in A0: A1 - 0000000080406cc400][Display on Matching Function Return: A2 - 0400000000][end:FF][Display General Text: 87 - ][Auto Goto Next Box: 70 - ][Bottom Shaded BG Box: 7F - 000c0134001e00640000005a][Define Textured BG Box : 80 - 00280048006e008E08015E28][Path to object Point: 91 - 0000fe7b00bb20b30004][Path to object Point: 91 - 0002073102bc1fac0003][Set Mario Action: A6 - 00001333][Set text speed: 40 - 0003][Enable A to Increase Speed: 4C - 0001][Play Small Blip Each Char: 76 - ]This weirdo doesn't like anyone coming to his house
who he doesn't know,[Pause for Inputted Time: 74 - 0014] so he hid the door and you can only
get in by warping.[Pause for Inputted Time: 74 - 0038][
] I'll put a 1up on top of the warp
so you can find it.[Goto Next Box on A press: 71 - ][Set Mario Action: A6 - 0C400201][Auto End Display After VIs: 7C - 0000]
